<svg xmlns="http://www.w3.org/2000/svg" width="18.186" height="18.125" viewBox="0 0 18.186 18.125">
  <g id="Group_282" data-name="Group 282" transform="translate(-1318.646 -644.369)" opacity="0.801">
    <path id="Path_98" data-name="Path 98" d="M1327.709,660.984h-6.8a.756.756,0,0,1-.755-.756V646.635a.755.755,0,0,1,.755-.755h6.8a.755.755,0,0,0,0-1.511h-6.8a2.269,2.269,0,0,0-2.266,2.266v13.593a2.269,2.269,0,0,0,2.266,2.266h6.8a.755.755,0,1,0,0-1.51Z" fill="#003d64"/>
    <path id="Path_99" data-name="Path 99" d="M1336.606,652.894l-4.591-4.531a.755.755,0,0,0-1.061,1.075l3.282,3.238h-8.793a.755.755,0,0,0,0,1.511h8.793l-3.282,3.238a.755.755,0,1,0,1.061,1.075l4.591-4.531a.752.752,0,0,0,0-1.075Z" fill="#003d64"/>
  </g>
</svg>
